一 乙 乙 二 二 十 十 丁 丁 廠 厂 七 七 蔔 卜 人 人 入 入 八 八 九 九 幾 几 
兒 儿 了 了 力 力 乃 乃 刀 刀 又 又 三 三 於 于 幹 干 虧 亏 士 士 工 工 土 
土 才 才 寸 寸 下 下 大 大 丈 丈 與 与 萬 万 上 上 小 小 口 口 巾 巾 山 山 
千 千 乞 乞 川 川 億 亿 個 个 勺 勺 久 凡 凡 及 及 夕 夕 丸 丸 麽 么 廣 广 
亡 亡 門 门 義 义 之 之 屍 尸 弓 弓 己 己 已 已 子 子 衛 卫 也 也 女 女 飛 
飞 刃 刃 習 习 叉 叉 馬 马 鄉 乡 豐 丰 王 王 井 井 開 开 夫 夫 天 天 無 无 
元 元 專 专 雲 云 紮 扎 藝 艺 木 木 五 五 支 支 廳 厅 不 不 太 太 犬 犬 区 
歷 历 尤 尤 友 友 匹 匹 車 车 巨 巨 牙 牙 屯 屯 比 比 互 互 切 切 瓦 瓦 止 
止 少 少 日 日 中 中 岡 冈 貝 贝 內 内 水 水 見 见 午 午 牛 牛 手 手 毛 毛 
氣 气 升 升 長 长 仁 仁 什 什 片 片 仆 仆 化 化 仇 仇 幣 币 仍 仍 僅 仅 斤 
斤 爪 爪 反 反 介 介 父 父 從 从 今 兇 凶 分 分 乏 乏 公 公 倉 仓 月 月 氏 
氏 勿 勿 欠 欠 風 风 丹 丹 勻 匀 烏 乌 鳳 凤 勾 勾 文 文 六 六 方 方 火 火 
為 为 鬥 斗 憶 忆 訂 订 計 计 戶 户 認 认 心 心 尺 尺 引 引 醜 丑 巴 巴 孔 
孔 隊 队 辦 办 以 以 允 允 予 予 勸 劝 雙 双 書 书 幻 幻 玉 玉 刊 刊 示 末 
末 未 未 擊 击 打 打 巧 巧 正 正 撲 扑 扒 扒 功 功 扔 扔 去 去 甘 甘 世 世 
古 古 節 节 本 本 術 术 可 可 丙 丙 左 左 厲 厉 右 右 石 石 布 布 龍 龙 平 
平 滅 灭 軋 轧 東 东 卡 卡 北 北 占 占 業 业 舊 旧 帥 帅 歸 归 且 且 旦 旦 
目 目 葉 叶 甲 甲 申 申 叮 叮 电 號 号 田 田 由 由 史 史 只 只 央 央 兄 兄 
叼 叼 叫 叫 另 另 叨 叨 嘆 叹 四 四 生 生 失 失 禾 禾 丘 丘 付 付 仗 仗 代 

代 仙 仙 們 们 儀 仪 白 白 仔 仔 他 他 斥 斥 瓜 瓜 乎 乎 叢 丛 令 令 用 用 
甩 甩 印 印 樂 乐 句 句 匆 匆 冊 册 犯 犯 外 外 處 处 冬 冬 鳥 鸟 务 包 包 
饑 饥 主 主 市 市 立 立 閃 闪 蘭 兰 半 半 汁 汁 匯 汇 頭 头 漢 汉 寧 宁 穴 
穴 它 它 討 讨 寫 写 讓 让 禮 礼 訓 训 必 必 議 议 訊 讯 記 记 永 永 司 司 
尼 尼 民 民 出 出 遼 辽 奶 奶 奴 奴 加 加 召 召 皮 皮 邊 边 發 发 孕 孕 聖 
圣 對 对 臺 台 矛 矛 糾 纠 母 幼 幼 絲 丝 式 式 刑 刑 動 动 扛 扛 寺 寺 吉 
吉 扣 扣 考 考 托 托 老 老 執 执 鞏 巩 圾 圾 擴 扩 掃 扫 地 地 揚 扬 場 场 
耳 耳 共 共 芒 芒 亞 亚 芝 芝 朽 朽 樸 朴 機 机 權 权 過 过 臣 臣 再 再 協 
协 西 西 壓 压 厭 厌 在 在 有 有 百 百 存 存 而 而 頁 页 匠 匠 夸 奪 夺 灰 
灰 達 达 列 列 死 死 成 成 夾 夹 軌 轨 邪 邪 劃 划 邁 迈 畢 毕 至 至 此 此 
貞 贞 師 师 塵 尘 尖 尖 劣 劣 光 光 當 当 早 早 吐 吐 嚇 吓 蟲 虫 曲 曲 團 
团 同 同 吊 吊 吃 吃 因 因 吸 吸 嗎 吗 嶼 屿 帆 帆 歲 岁 回 回 豈 岂 剛 刚 
則 则 肉 肉 網 网 年 年 朱 先 先 丟 丢 舌 舌 竹 竹 遷 迁 喬 乔 偉 伟 傳 传 
乒 乒 乓 乓 休 休 伍 伍 伏 伏 優 优 伐 伐 延 延 件 件 任 任 傷 伤 價 价 份 
份 華 华 仰 仰 仿 仿 夥 伙 偽 伪 自 自 血 血 向 向 似 似 後 后 行 行 舟 舟 
全 全 會 会 殺 杀 合 合 兆 兆 企 企 眾 众 爺 爷 傘 伞 創 创 肌 朵 朵 雜 杂 
危 危 旬 旬 旨 旨 負 负 各 各 名 名 多 多 爭 争 色 色 壯 壮 沖 冲 冰 冰 莊 
庄 慶 庆 亦 亦 劉 刘 齊 齐 交 交 次 次 衣 衣 產 产 決 决 充 充 妄 妄 閉 闭 
問 问 闖 闯 羊 羊 並 并 關 关 米 米 燈 灯 州 州 汗 汗 汙 污 江 江 池 池 湯 

汤 忙 忙 興 兴 宇 宇 守 宅 宅 字 字 安 安 講 讲 軍 军 許 许 論 论 農 农 諷 
讽 設 设 訪 访 尋 寻 那 那 迅 迅 盡 尽 導 导 異 异 孫 孙 陣 阵 陽 阳 收 收 
階 阶 陰 阴 防 防 奸 奸 如 如 婦 妇 好 好 她 她 媽 妈 戲 戏 羽 羽 觀 观 歡 
欢 買 买 紅 红 纖 纤 級 级 約 约 紀 纪 馳 驰 巡 巡 壽 寿 弄 麥 麦 形 形 進 
进 戒 戒 吞 吞 遠 远 違 违 運 运 扶 扶 撫 抚 壇 坛 技 技 壞 坏 擾 扰 拒 拒 
找 找 批 批 扯 扯 址 址 走 走 抄 抄 壩 坝 貢 贡 攻 攻 赤 赤 折 折 抓 抓 扮 
扮 搶 抢 孝 孝 均 均 拋 抛 投 投 墳 坟 抗 抗 坑 坑 坊 坊 抖 抖 護 护 殼 壳 
誌 志 扭 扭 塊 块 声 把 把 報 报 卻 却 劫 劫 芽 芽 花 花 芹 芹 芬 芬 蒼 苍 
芳 芳 嚴 严 蘆 芦 勞 劳 克 克 蘇 苏 桿 杆 杠 杠 杜 杜 材 材 村 村 杏 杏 極 
极 李 李 楊 杨 求 求 更 更 束 束 豆 豆 兩 两 麗 丽 醫 医 辰 辰 勵 励 否 否 
還 还 殲 歼 來 来 連 连 步 步 堅 坚 旱 旱 盯 盯 呈 呈 时 吳 吴 助 助 縣 县 
裏 里 呆 呆 園 园 曠 旷 圍 围 呀 呀 噸 吨 足 足 郵 邮 男 男 困 困 吵 吵 串 
串 員 员 聽 听 吩 吩 吹 吹 嗚 呜 吧 吧 吼 吼 別 别 崗 岗 帳 帐 財 财 針 针 
釘 钉 告 告 我 我 亂 乱 利 利 禿 秃 秀 秀 私 私 每 每 兵 兵 估 估 體 体 何 
何 但 但 伸 伸 作 伯 伯 伶 伶 傭 佣 低 低 你 你 住 住 位 位 伴 伴 身 身 皂 
皂 佛 佛 近 近 徹 彻 役 役 返 返 余 余 希 希 坐 坐 谷 谷 妥 妥 含 含 鄰 邻 
岔 岔 肝 肝 肚 肚 腸 肠 龜 龟 免 免 狂 狂 猶 犹 角 角 刪 删 條 条 卵 卵 島 
岛 迎 迎 飯 饭 飲 饮 系 系 言 言 凍 冻 狀 状 畝 亩 况 床 床 庫 库 療 疗 應 
应 冷 冷 這 这 序 序 辛 辛 棄 弃 冶 冶 忘 忘 閑 闲 間 间 悶 闷 判 判 竈 灶 

燦 灿 弟 弟 汪 汪 沙 沙 汽 汽 沃 沃 泛 泛 溝 沟 沒 没 沈 沈 沈 沉 懷 怀 憂 
忧 快 快 完 完 宋 宋 宏 宏 牢 牢 究 究 窮 穷 災 灾 良 良 證 证 啟 启 評 评 
補 补 初 初 社 識 识 訴 诉 診 诊 詞 词 譯 译 君 君 靈 灵 即 即 層 层 尿 尿 
尾 尾 遲 迟 局 局 改 改 張 张 忌 忌 際 际 陸 陆 阿 阿 陳 陈 阻 阻 附 附 妙 
妙 妖 妖 妨 妨 努 努 忍 忍 勁 劲 雞 鸡 驅 驱 純 纯 紗 纱 納 纳 綱 纲 駁 驳 
縱 纵 紛 纷 紙 纸 紋 纹 紡 纺 驢 驴 紐 纽 奉 奉 玩 環 环 武 武 青 青 責 责 
現 现 表 表 規 规 抹 抹 攏 拢 拔 拔 揀 拣 擔 担 坦 坦 押 押 抽 抽 拐 拐 拖 
拖 拍 拍 者 者 頂 顶 拆 拆 擁 拥 抵 抵 拘 拘 勢 势 抱 抱 垃 垃 拉 拉 攔 拦 
拌 拌 幸 幸 招 招 坡 坡 披 披 撥 拨 擇 择 擡 抬 其 其 取 取 苦 苦 若 若 茂 
茂 蘋 苹 苗 英 英 範 范 直 直 茄 茄 莖 茎 茅 茅 林 林 枝 枝 杯 杯 櫃 柜 析 
析 板 板 松 松 槍 枪 構 构 傑 杰 述 述 枕 枕 喪 丧 或 或 畫 画 臥 卧 事 事 
刺 刺 棗 枣 雨 雨 賣 卖 礦 矿 碼 码 廁 厕 奔 奔 奇 奇 奮 奋 態 态 歐 欧 壟 
垄 妻 妻 轟 轰 頃 顷 轉 转 斬 斩 輪 轮 軟 软 到 非 非 叔 叔 肯 肯 齒 齿 些 
些 虎 虎 虜 虏 腎 肾 賢 贤 尚 尚 旺 旺 具 具 果 果 味 味 昆 昆 國 国 昌 昌 
暢 畅 明 明 易 易 昂 昂 典 典 固 固 忠 忠 咐 咐 呼 呼 鳴 鸣 詠 咏 呢 呢 岸 
岸 巖 岩 帖 帖 羅 罗 幟 帜 嶺 岭 凱 凯 敗 败 販 贩 購 购 圖 图 釣 钓 制 制 
知 知 垂 牧 牧 物 物 乖 乖 刮 刮 稈 秆 和 和 季 季 委 委 佳 佳 侍 侍 供 供 
使 使 例 例 版 版 侄 侄 偵 侦 側 侧 憑 凭 僑 侨 佩 佩 貨 货 依 依 的 的 迫 
迫 質 质 欣 欣 征 征 往 往 爬 爬 彼 彼 徑 径 所 所 舍 舍 金 金 命 命 斧 斧 

爸 爸 采 采 受 受 乳 乳 貪 贪 念 念 貧 贫 肤 肺 肺 肢 肢 腫 肿 脹 胀 朋 朋 
股 股 肥 肥 服 服 脅 胁 周 周 昏 昏 魚 鱼 兔 兔 狐 狐 忽 忽 狗 狗 備 备 飾 
饰 飽 饱 飼 饲 變 变 京 京 享 享 店 店 夜 夜 廟 庙 府 府 底 底 劑 剂 郊 郊 
廢 废 凈 净 盲 盲 放 放 刻 刻 育 育 閘 闸 鬧 闹 鄭 郑 券 券 卷 卷 單 单 炒 
炒 炊 炕 炕 炎 炎 爐 炉 沫 沫 淺 浅 法 法 泄 泄 河 河 沾 沾 淚 泪 油 油 泊 
泊 沿 沿 泡 泡 註 注 瀉 泻 泳 泳 泥 泥 沸 沸 波 波 潑 泼 澤 泽 治 治 怖 怖 
性 性 怕 怕 憐 怜 怪 怪 學 学 寶 宝 宗 宗 定 定 宜 宜 審 审 宙 宙 官 官 空 
空 簾 帘 實 实 試 试 郎 郎 詩 诗 肩 肩 房 誠 诚 襯 衬 衫 衫 視 视 話 话 誕 
诞 詢 询 該 该 詳 详 建 建 肅 肃 錄 录 隸 隶 居 居 屆 届 刷 刷 屈 屈 弦 弦 
承 承 孟 孟 孤 孤 陜 陕 降 降 限 限 妹 妹 姑 姑 姐 姐 姓 姓 始 始 駕 驾 參 
参 艱 艰 線 线 練 练 組 组 細 细 駛 驶 織 织 終 终 駐 驻 駝 驼 紹 绍 經 经 
贯 奏 奏 春 春 幫 帮 珍 珍 玻 玻 毒 毒 型 型 掛 挂 封 封 持 持 項 项 垮 垮 
挎 挎 城 城 撓 挠 政 政 赴 赴 趙 赵 擋 挡 挺 挺 括 括 拴 拴 拾 拾 挑 挑 指 
指 墊 垫 掙 挣 擠 挤 拼 拼 挖 挖 按 按 揮 挥 挪 挪 某 某 甚 甚 革 革 薦 荐 
巷 巷 帶 带 草 草 繭 茧 茶 茶 荒 荒 茫 蕩 荡 榮 荣 故 故 胡 胡 南 南 藥 药 
標 标 枯 枯 柄 柄 棟 栋 相 相 查 查 柏 柏 柳 柳 柱 柱 柿 柿 欄 栏 樹 树 要 
要 鹹 咸 威 威 歪 歪 研 研 磚 砖 厘 厘 厚 厚 砌 砌 砍 砍 面 面 耐 耐 耍 耍 
牽 牵 殘 残 殃 殃 輕 轻 鴉 鸦 皆 皆 背 背 戰 战 點 点 臨 临 覽 览 豎 竖 省 
削 削 嘗 尝 是 是 盼 盼 眨 眨 哄 哄 顯 显 啞 哑 冒 冒 映 映 星 星 昨 昨 畏 

畏 趴 趴 胃 胃 貴 贵 界 界 虹 虹 蝦 虾 蟻 蚁 思 思 螞 蚂 雖 虽 品 品 咽 咽 
罵 骂 嘩 哗 咱 咱 響 响 哈 哈 咬 咬 咳 咳 哪 哪 炭 炭 峽 峡 罰 罚 賤 贱 貼 
贴 骨 骨 鈔 钞 鐘 钟 鋼 钢 鑰 钥 钩 卸 卸 缸 缸 拜 拜 看 看 矩 矩 怎 怎 牲 
牲 選 选 適 适 秒 秒 香 香 種 种 秋 秋 科 科 重 重 復 复 竿 竿 段 段 便 便 
倆 俩 貸 贷 順 顺 修 修 保 保 促 促 侮 侮 儉 俭 俗 俗 俘 俘 信 信 皇 皇 泉 
泉 鬼 鬼 侵 侵 追 追 俊 俊 盾 盾 待 待 律 律 很 很 須 须 敘 叙 劍 剑 逃 食 
食 盆 盆 膽 胆 勝 胜 胞 胞 胖 胖 脈 脉 勉 勉 狹 狭 獅 狮 獨 独 狡 狡 獄 狱 
狠 狠 貿 贸 怨 怨 急 急 饒 饶 蝕 蚀 餃 饺 餅 饼 彎 弯 將 将 獎 奖 哀 哀 亭 
亭 亮 亮 度 度 跡 迹 庭 庭 瘡 疮 瘋 疯 疫 疫 疤 疤 姿 姿 親 亲 音 音 帝 帝 
施 施 聞 闻 閥 阀 閣 阁 差 差 养 美 美 姜 姜 叛 叛 送 送 類 类 迷 迷 前 前 
首 首 逆 逆 總 总 煉 炼 炸 炸 炮 炮 爛 烂 剃 剃 潔 洁 洪 洪 灑 洒 澆 浇 濁 
浊 洞 洞 測 测 洗 洗 活 活 派 派 洽 洽 染 染 濟 济 洋 洋 洲 洲 渾 浑 濃 浓 
津 津 恒 恒 恢 恢 恰 恰 惱 恼 恨 恨 舉 举 覺 觉 宣 宣 室 室 宮 宫 宪 突 突 
穿 穿 竊 窃 客 客 冠 冠 語 语 扁 扁 襖 袄 祖 祖 神 神 祝 祝 誤 误 誘 诱 說 
说 誦 诵 墾 垦 退 退 既 既 屋 屋 晝 昼 費 费 陡 陡 眉 眉 孩 孩 除 除 險 险 
院 院 娃 娃 姥 姥 姨 姨 姻 姻 嬌 娇 怒 怒 架 架 賀 贺 盈 盈 勇 勇 怠 怠 柔 
柔 壘 垒 綁 绑 絨 绒 結 结 绕 驕 骄 繪 绘 給 给 絡 络 駱 骆 絕 绝 絞 绞 統 
统 耕 耕 耗 耗 艷 艳 泰 泰 珠 珠 班 班 素 素 蠶 蚕 頑 顽 盞 盏 匪 匪 撈 捞 
栽 栽 捕 捕 振 振 載 载 趕 赶 起 起 鹽 盐 捎 捎 捏 捏 埋 埋 捉 捉 捆 捆 捐 

捐 損 损 都 都 哲 哲 逝 逝 撿 捡 換 换 挽 挽 熱 热 恐 恐 壺 壶 挨 恥 耻 耽 
耽 恭 恭 蓮 莲 莫 莫 荷 荷 獲 获 晉 晋 惡 恶 真 真 框 框 桂 桂 檔 档 桐 桐 
株 株 橋 桥 桃 桃 格 格 校 校 核 核 樣 样 根 根 索 索 哥 哥 速 速 逗 逗 栗 
栗 配 配 翅 翅 辱 辱 唇 唇 夏 夏 礎 础 破 破 原 原 套 套 逐 逐 烈 烈 殊 殊 
顧 顾 轎 轿 較 较 頓 顿 毙 致 致 柴 柴 桌 桌 慮 虑 監 监 緊 紧 黨 党 曬 晒 
眠 眠 曉 晓 鴨 鸭 晃 晃 晌 晌 暈 晕 蚊 蚊 哨 哨 哭 哭 恩 恩 喚 唤 啊 啊 唉 
唉 罷 罢 峰 峰 圓 圆 賊 贼 賄 贿 錢 钱 鉗 钳 鉆 钻 鐵 铁 鈴 铃 鉛 铅 缺 缺 
氧 氧 特 特 犧 牺 造 造 乘 乘 敵 敌 秤 秤 租 租 積 积 秧 秧 秩 稱 称 秘 秘 
透 透 筆 笔 笑 笑 筍 笋 債 债 借 借 值 值 倚 倚 傾 倾 倒 倒 倘 倘 俱 俱 倡 
倡 候 候 俯 俯 倍 倍 倦 倦 健 健 臭 臭 射 射 躬 躬 息 息 徒 徒 徐 徐 艦 舰 
艙 舱 般 般 航 航 途 途 拿 拿 爹 爹 愛 爱 頌 颂 翁 翁 脆 脆 脂 脂 胸 胸 胳 
胳 臟 脏 膠 胶 腦 脑 狸 狼 狼 逢 逢 留 留 皺 皱 餓 饿 戀 恋 槳 桨 漿 浆 衰 
衰 高 高 席 席 準 准 座 座 脊 脊 癥 症 病 病 疾 疾 疼 疼 疲 疲 效 效 離 离 
唐 唐 資 资 涼 凉 站 站 剖 剖 競 竞 部 部 旁 旁 旅 旅 畜 畜 閱 阅 羞 羞 瓶 
瓶 拳 拳 粉 粉 料 料 益 益 兼 兼 烤 烤 烘 烘 煩 烦 燒 烧 烛 煙 烟 遞 递 濤 
涛 浙 浙 澇 涝 酒 酒 涉 涉 消 消 浩 浩 海 海 塗 涂 浴 浴 浮 浮 流 流 潤 润 
浪 浪 浸 浸 漲 涨 燙 烫 湧 涌 悟 悟 悄 悄 悔 悔 悅 悦 害 害 寬 宽 家 家 宵 
宵 宴 宴 賓 宾 窄 窄 容 容 宰 宰 案 案 請 请 朗 朗 諸 诸 讀 读 扇 扇 襪 袜 
袖 袖 袍 袍 被 被 祥 課 课 誰 谁 調 调 冤 冤 諒 谅 談 谈 誼 谊 剝 剥 懇 恳 

展 展 劇 剧 屑 屑 弱 弱 陵 陵 陶 陶 陷 陷 陪 陪 娛 娱 娘 娘 通 通 能 能 難 
难 預 预 桑 桑 絹 绢 繡 绣 驗 验 繼 继 球 球 理 理 捧 捧 堵 堵 描 描 域 域 
掩 掩 捷 捷 排 排 掉 掉 堆 堆 推 推 掀 掀 授 授 教 教 掏 掠 掠 培 培 接 接 
控 控 探 探 據 据 掘 掘 職 职 基 基 著 著 勒 勒 黃 黄 萌 萌 蘿 萝 菌 菌 菜 
菜 萄 萄 菊 菊 萍 萍 菠 菠 營 营 械 械 夢 梦 梢 梢 梅 梅 檢 检 梳 梳 梯 梯 
桶 桶 救 救 副 副 票 票 戚 戚 爽 爽 聾 聋 襲 袭 盛 盛 雪 雪 輔 辅 輛 辆 虛 
虚 雀 雀 堂 堂 常 匙 匙 晨 晨 睜 睁 瞇 眯 眼 眼 懸 悬 野 野 啦 啦 晚 晚 啄 
啄 距 距 躍 跃 略 略 蛇 蛇 累 累 唱 唱 患 患 唯 唯 崖 崖 嶄 崭 崇 崇 圈 圈 
銅 铜 鏟 铲 銀 银 甜 甜 梨 梨 犁 犁 移 移 笨 笨 籠 笼 笛 笛 符 符 第 第 敏 
敏 做 做 袋 袋 悠 悠 償 偿 偶 偶 偷 偷 您 您 售 售 停 偏 偏 假 假 得 得 銜 
衔 盤 盘 船 船 斜 斜 盒 盒 鴿 鸽 悉 悉 欲 欲 彩 彩 領 领 腳 脚 脖 脖 臉 脸 
脫 脱 象 象 夠 够 猜 猜 豬 猪 獵 猎 貓 猫 猛 猛 餡 馅 館 馆 湊 凑 減 减 毫 
毫 麻 麻 癢 痒 痕 痕 廊 廊 康 康 庸 庸 鹿 鹿 盜 盗 章 章 竟 竟 商 商 族 族 
旋 旋 望 望 率 著 着 蓋 盖 粘 粘 粗 粗 粒 粒 斷 断 剪 剪 獸 兽 清 清 添 添 
淋 淋 淹 淹 渠 渠 漸 渐 混 混 漁 渔 淘 淘 液 液 淡 淡 深 深 婆 婆 梁 梁 滲 
渗 情 情 惜 惜 慚 惭 悼 悼 懼 惧 惕 惕 驚 惊 慘 惨 慣 惯 寇 寇 寄 寄 宿 宿 
窯 窑 密 密 謀 谋 謊 谎 禍 祸 謎 谜 逮 逮 敢 敢 屠 彈 弹 隨 随 蛋 蛋 隆 隆 
隱 隐 婚 婚 嬸 婶 頸 颈 績 绩 緒 绪 續 续 騎 骑 繩 绳 維 维 綿 绵 綢 绸 綠 
绿 琴 琴 斑 斑 替 替 款 款 堪 堪 搭 搭 塔 塔 越 越 趁 趁 趨 趋 超 超 提 提 

堤 堤 博 博 揭 揭 喜 喜 插 插 揪 揪 搜 搜 煮 煮 援 援 裁 裁 擱 搁 摟 搂 攪 
搅 握 握 揉 斯 斯 期 期 欺 欺 聯 联 散 散 惹 惹 葬 葬 葛 葛 董 董 葡 葡 敬 
敬 蔥 葱 落 落 朝 朝 辜 辜 葵 葵 棒 棒 棋 棋 植 植 森 森 椅 椅 椒 椒 棵 棵 
棍 棍 棉 棉 棚 棚 棕 棕 惠 惠 惑 惑 逼 逼 廚 厨 廈 厦 硬 硬 確 确 雁 雁 殖 
殖 裂 裂 雄 雄 暫 暂 雅 雅 輩 辈 悲 悲 紫 紫 辉 敞 敞 賞 赏 掌 掌 晴 晴 暑 
暑 最 最 量 量 噴 喷 晶 晶 喇 喇 遇 遇 喊 喊 景 景 踐 践 跌 跌 跑 跑 遺 遗 
蛙 蛙 蛛 蛛 蜓 蜓 喝 喝 餵 喂 喘 喘 喉 喉 幅 幅 帽 帽 賭 赌 賠 赔 黑 黑 鑄 
铸 鋪 铺 鏈 链 銷 销 鎖 锁 鋤 锄 鍋 锅 銹 锈 鋒 锋 銳 锐 短 短 智 智 毯 毯 
鵝 鹅 剩 稍 稍 程 程 稀 稀 稅 税 筐 筐 等 等 築 筑 策 策 篩 筛 筒 筒 答 答 
筋 筋 箏 筝 傲 傲 傅 傅 牌 牌 堡 堡 集 集 焦 焦 傍 傍 儲 储 奧 奥 街 街 懲 
惩 禦 御 循 循 艇 艇 舒 舒 番 番 釋 释 禽 禽 臘 腊 脾 脾 腔 腔 魯 鲁 猾 猾 
猴 猴 然 然 饞 馋 裝 装 蠻 蛮 就 就 痛 痛 童 闊 阔 善 善 羨 羡 普 普 糞 粪 
尊 尊 道 道 曾 曾 焰 焰 港 港 湖 湖 渣 渣 濕 湿 溫 温 渴 渴 滑 滑 灣 湾 渡 
渡 遊 游 滋 滋 溉 溉 憤 愤 慌 慌 惰 惰 愧 愧 愉 愉 慨 慨 割 割 寒 寒 富 富 
竄 窜 窩 窝 窗 窗 遍 遍 裕 裕 褲 裤 裙 裙 謝 谢 謠 谣 謙 谦 屬 属 屢 屡 強 
强 粥 疏 疏 隔 隔 隙 隙 絮 絮 嫂 嫂 登 登 緞 缎 緩 缓 編 编 騙 骗 緣 缘 瑞 
瑞 魂 魂 肆 肆 攝 摄 摸 摸 填 填 搏 搏 塌 塌 鼓 鼓 擺 摆 攜 携 搬 搬 搖 摇 
搞 搞 塘 塘 攤 摊 蒜 蒜 勤 勤 鵲 鹊 藍 蓝 墓 墓 幕 幕 蓬 蓬 蓄 蓄 蒙 蒙 蒸 
蒸 獻 献 禁 禁 楚 楚 想 想 槐 槐 榆 榆 楼 概 概 賴 赖 酬 酬 感 感 礙 碍 碑 

碑 碎 碎 碰 碰 碗 碗 碌 碌 雷 雷 零 零 霧 雾 雹 雹 輸 输 督 督 齡 龄 鑒 鉴 
睛 睛 睡 睡 睬 睬 鄙 鄙 愚 愚 暖 暖 盟 盟 歇 歇 暗 暗 照 照 跨 跨 跳 跳 跪 
跪 路 路 跟 跟 遣 遣 蛾 蛾 蜂 蜂 嗓 嗓 置 置 罪 罪 罩 罩 錯 错 錫 锡 鑼 锣 
锤 錦 锦 鍵 键 鋸 锯 矮 矮 辭 辞 稠 稠 愁 愁 籌 筹 簽 签 簡 简 毀 毁 舅 舅 
鼠 鼠 催 催 傻 傻 像 像 躲 躲 微 微 愈 愈 遙 遥 腰 腰 腥 腥 腹 腹 騰 腾 腿 
腿 觸 触 解 解 醬 酱 痰 痰 廉 廉 新 新 韻 韵 意 意 糧 粮 數 数 煎 煎 塑 塑 
慈 慈 煤 煤 煌 煌 滿 满 漠 漠 源 源 滤 濫 滥 滔 滔 溪 溪 溜 溜 滾 滚 濱 滨 
粱 粱 灘 滩 慎 慎 譽 誉 塞 塞 謹 谨 福 福 群 群 殿 殿 辟 辟 障 障 嫌 嫌 嫁 
嫁 叠 叠 縫 缝 纏 缠 靜 静 碧 碧 璃 璃 墻 墙 撇 撇 嘉 嘉 摧 摧 截 截 誓 誓 
境 境 摘 摘 摔 摔 聚 聚 蔽 蔽 慕 慕 暮 暮 蔑 蔑 模 模 榴 榴 榜 榜 榨 榨 歌 
遭 遭 酷 酷 釀 酿 酸 酸 磁 磁 願 愿 需 需 弊 弊 裳 裳 顆 颗 嗽 嗽 蜻 蜻 蠟 
蜡 蠅 蝇 蜘 蜘 賺 赚 鍬 锹 鍛 锻 舞 舞 穩 稳 算 算 籮 箩 管 管 僚 僚 鼻 鼻 
魄 魄 貌 貌 膜 膜 膊 膊 膀 膀 鮮 鲜 疑 疑 饅 馒 裹 裹 敲 敲 豪 豪 膏 膏 遮 
遮 腐 腐 瘦 瘦 辣 辣 竭 竭 端 端 旗 精 精 歉 歉 熄 熄 熔 熔 漆 漆 漂 漂 漫 
漫 滴 滴 演 演 漏 漏 慢 慢 寨 寨 賽 赛 察 察 蜜 蜜 譜 谱 嫩 嫩 翠 翠 熊 熊 
凳 凳 騾 骡 縮 缩 慧 慧 撕 撕 撒 撒 趣 趣 趟 趟 撐 撑 播 播 撞 撞 撤 撤 增 
增 聰 聪 鞋 鞋 蕉 蕉 蔬 蔬 橫 横 槽 槽 櫻 樱 橡 橡 飄 飘 醋 醋 醉 醉 震 黴 
霉 瞞 瞒 題 题 暴 暴 瞎 瞎 影 影 踢 踢 踏 踏 踩 踩 蹤 踪 蝶 蝶 蝴 蝴 囑 嘱 
墨 墨 鎮 镇 靠 靠 稻 稻 黎 黎 稿 稿 稼 稼 箱 箱 箭 箭 篇 篇 僵 僵 躺 躺 僻 

僻 德 德 艘 艘 膝 膝 膛 膛 熟 熟 摩 摩 顏 颜 毅 毅 糊 糊 遵 遵 潛 潜 潮 潮 
懂 懂 額 额 慰 慰 劈 劈 操 操 燕 薯 薯 薪 薪 薄 薄 顛 颠 橘 橘 整 整 融 融 
醒 醒 餐 餐 嘴 嘴 蹄 蹄 器 器 贈 赠 默 默 鏡 镜 贊 赞 籃 篮 邀 邀 衡 衡 膨 
膨 雕 雕 磨 磨 凝 凝 辨 辨 辯 辩 糖 糖 糕 糕 燃 燃 澡 澡 激 激 懶 懒 壁 壁 
避 避 繳 缴 戴 戴 擦 擦 鞠 鞠 藏 藏 霜 霜 霞 霞 瞧 瞧 蹈 蹈 螺 螺 穗 繁 繁 
辮 辫 贏 赢 糟 糟 糠 糠 燥 燥 臂 臂 翼 翼 驟 骤 鞭 鞭 覆 覆 蹦 蹦 鐮 镰 翻 
翻 鷹 鹰 警 警 攀 攀 蹲 蹲 顫 颤 瓣 瓣 爆 爆 疆 疆 壤 壤 耀 耀 躁 躁 嚼 嚼 
嚷 嚷 籍 籍 魔 魔 灌 灌 蠢 蠢 霸 霸 露 露 囊 囊 罐 罐 匕 匕 刁 刁 丐 丐 歹 
歹 戈 戈 夭 夭 侖 仑 譏 讥 冗 鄧 邓 艾 艾 夯 夯 凸 凸 盧 卢 叭 叭 嘰 叽 皿 
皿 凹 凹 囚 囚 矢 矢 乍 乍 爾 尔 馮 冯 玄 玄 邦 邦 迂 迂 邢 邢 芋 芋 芍 芍 
吏 吏 夷 夷 籲 吁 呂 吕 吆 吆 屹 屹 廷 廷 迄 迄 臼 臼 仲 仲 倫 伦 伊 伊 肋 
肋 旭 旭 匈 匈 鳧 凫 妝 妆 亥 亥 汛 汛 諱 讳 訝 讶 訛 讹 訟 讼 诀 弛 弛 阱 
阱 馱 驮 馴 驯 紉 纫 玖 玖 瑪 玛 韌 韧 摳 抠 扼 扼 汞 汞 扳 扳 掄 抡 坎 坎 
塢 坞 抑 抑 擬 拟 抒 抒 芙 芙 蕪 芜 葦 苇 芥 芥 芯 芯 芭 芭 杖 杖 杉 杉 巫 
巫 杈 杈 甫 甫 匣 匣 軒 轩 鹵 卤 肖 肖 吱 吱 吠 吠 嘔 呕 吶 呐 吟 吟 嗆 呛 
吻 吻 吭 吭 邑 邑 囤 囤 吮 嶇 岖 牡 牡 佑 佑 佃 佃 伺 伺 囪 囱 肛 肛 肘 肘 
甸 甸 狽 狈 鳩 鸠 彤 彤 灸 灸 刨 刨 庇 庇 吝 吝 廬 庐 閏 闰 兌 兑 灼 灼 沐 
沐 沛 沛 汰 汰 瀝 沥 淪 沦 洶 汹 滄 沧 滬 沪 忱 忱 詛 诅 詐 诈 罕 罕 屁 屁 
墜 坠 妓 妓 姊 姊 妒 妒 緯 纬 玫 玫 卦 卦 坷 坷 坯 坯 拓 拓 坪 坤 坤 拄 拄 

擰 拧 拂 拂 拙 拙 拇 拇 拗 拗 茉 茉 昔 昔 苛 苛 苫 苫 茍 苟 苞 苞 茁 茁 苔 
苔 枉 枉 樞 枢 枚 枚 楓 枫 杭 杭 郁 郁 礬 矾 奈 奈 奄 奄 毆 殴 歧 歧 卓 卓 
曇 昙 哎 哎 咕 咕 呵 呵 嚨 咙 呻 呻 咒 咒 咆 咆 咖 咖 帕 帕 賬 账 貶 贬 貯 
贮 氛 氛 秉 秉 嶽 岳 侠 僥 侥 侶 侣 侈 侈 卑 卑 劊 刽 剎 刹 肴 肴 覓 觅 忿 
忿 甕 瓮 骯 肮 肪 肪 獰 狞 龐 庞 瘧 疟 疙 疙 疚 疚 卒 卒 氓 氓 炬 炬 沽 沽 
沮 沮 泣 泣 濘 泞 泌 泌 沼 沼 怔 怔 怯 怯 寵 宠 宛 宛 衩 衩 祈 祈 詭 诡 帚 
帚 屜 屉 弧 弧 彌 弥 陋 陋 陌 陌 函 函 姆 姆 虱 虱 叁 叁 绅 駒 驹 絆 绊 繹 
绎 契 契 貳 贰 玷 玷 玲 玲 珊 珊 拭 拭 拷 拷 拱 拱 挾 挟 垢 垢 垛 垛 拯 拯 
荊 荆 茸 茸 茬 茬 莢 荚 茵 茵 茴 茴 蕎 荞 薺 荠 葷 荤 熒 荧 荔 荔 棧 栈 柑 
柑 柵 栅 檸 柠 枷 枷 勃 勃 柬 柬 砂 砂 泵 泵 硯 砚 鷗 鸥 軸 轴 韭 韭 虐 虐 
昧 昧 盹 盹 咧 咧 昵 昭 昭 盅 盅 勛 勋 哆 哆 咪 咪 喲 哟 幽 幽 鈣 钙 鈍 钝 
鈉 钠 欽 钦 鈞 钧 鈕 钮 氈 毡 氫 氢 秕 秕 俏 俏 俄 俄 俐 俐 侯 侯 徊 徊 衍 
衍 胚 胚 朧 胧 胎 胎 猙 狰 餌 饵 巒 峦 奕 奕 咨 咨 颯 飒 閨 闺 閩 闽 籽 籽 
婁 娄 爍 烁 炫 炫 窪 洼 柒 柒 涎 涎 洛 洛 恃 恃 恍 恍 恬 恤 恤 宦 宦 誡 诫 
誣 诬 祠 祠 誨 诲 屏 屏 屎 屎 遜 逊 隕 陨 姚 姚 娜 娜 蚤 蚤 駭 骇 耘 耘 耙 
耙 秦 秦 匿 匿 埂 埂 捂 捂 捍 捍 袁 袁 捌 捌 挫 挫 摯 挚 搗 捣 捅 捅 埃 埃 
耿 耿 聶 聂 荸 荸 莽 莽 萊 莱 莉 莉 瑩 莹 鶯 莺 梆 梆 棲 栖 樺 桦 栓 栓 桅 
桅 樁 桩 賈 贾 酌 砸 砸 砰 砰 礫 砾 殉 殉 逞 逞 哮 哮 嘮 唠 哺 哺 剔 剔 蚌 
蚌 蚜 蚜 畔 畔 蚣 蚣 蚪 蚪 蚓 蚓 哩 哩 圃 圃 鴦 鸯 唁 唁 哼 哼 唆 唆 峭 峭 

唧 唧 峻 峻 賂 赂 贓 赃 鉀 钾 鉚 铆 氨 氨 秫 秫 笆 笆 俺 俺 賃 赁 倔 倔 殷 
殷 聳 耸 舀 舀 豺 豺 豹 豹 頒 颁 胯 胯 胰 胰 臍 脐 脓 逛 逛 卿 卿 鴕 鸵 鴛 
鸳 餒 馁 淩 凌 淒 凄 衷 衷 郭 郭 齋 斋 疹 疹 紊 紊 瓷 瓷 羔 羔 烙 烙 浦 浦 
渦 涡 渙 涣 滌 涤 澗 涧 涕 涕 澀 涩 悍 悍 憫 悯 竅 窍 諾 诺 誹 诽 袒 袒 諄 
谆 祟 祟 恕 恕 娩 娩 駿 骏 瑣 琐 麩 麸 琉 琉 瑯 琅 措 措 捺 捺 捶 捶 赦 赦 
埠 埠 撚 捻 掐 掂 掂 掖 掖 擲 掷 撣 掸 摻 掺 勘 勘 聊 聊 娶 娶 菱 菱 菲 菲 
萎 萎 菩 菩 螢 萤 乾 乾 蕭 萧 薩 萨 菇 菇 彬 彬 梗 梗 梧 梧 梭 梭 曹 曹 醞 
酝 酗 酗 廂 厢 矽 硅 碩 硕 奢 奢 盔 盔 匾 匾 顱 颅 彪 彪 眶 眶 晤 晤 曼 曼 
晦 晦 冕 冕 啡 啡 畦 畦 趾 趾 啃 啃 蛆 蛆 蚯 蚯 蛉 蛀 蛀 唬 唬 啰 啰 唾 唾 
啤 啤 啥 啥 嘯 啸 崎 崎 邏 逻 崔 崔 崩 崩 嬰 婴 賒 赊 銬 铐 鐺 铛 鋁 铝 鍘 
铡 銑 铣 銘 铭 矯 矫 稭 秸 穢 秽 笙 笙 笤 笤 偎 偎 傀 傀 軀 躯 兜 兜 釁 衅 
徘 徘 徙 徙 舶 舶 舷 舷 舵 舵 斂 敛 翎 翎 脯 脯 逸 逸 凰 凰 猖 猖 祭 祭 烹 
烹 庶 庶 庵 痊 痊 閻 阎 闡 阐 眷 眷 焊 焊 煥 焕 鴻 鸿 涯 涯 淑 淑 淌 淌 淮 
淮 淆 淆 淵 渊 淫 淫 淳 淳 淤 淤 澱 淀 涮 涮 涵 涵 惦 惦 悴 悴 惋 惋 寂 寂 
窒 窒 諜 谍 諧 谐 襠 裆 袱 袱 禱 祷 謁 谒 謂 谓 諺 谚 尉 尉 墮 堕 隅 隅 婉 
婉 頗 颇 綽 绰 繃 绷 綜 综 綻 绽 綴 缀 巢 巢 琳 琢 琢 瓊 琼 揍 揍 堰 堰 揩 
揩 攬 揽 揖 揖 彭 彭 揣 揣 攙 搀 搓 搓 壹 壹 搔 搔 葫 葫 募 募 蔣 蒋 蒂 蒂 
韓 韩 棱 棱 椰 椰 焚 焚 椎 椎 棺 棺 榔 榔 橢 椭 粟 粟 棘 棘 酣 酣 酥 酥 硝 
硝 硫 硫 頰 颊 靂 雳 翹 翘 鑿 凿 棠 棠 晰 晰 鼎 鼎 喳 喳 遏 遏 晾 晾 疇 畴 

跋 跋 跛 蛔 蛔 蜒 蜒 蛤 蛤 鵑 鹃 喻 喻 啼 啼 喧 喧 嵌 嵌 賦 赋 贖 赎 賜 赐 
銼 锉 鋅 锌 甥 甥 掰 掰 氮 氮 氯 氯 黍 黍 筏 筏 牘 牍 粵 粤 逾 逾 腌 腌 腋 
腋 腕 腕 猩 猩 猬 猬 憊 惫 敦 敦 痘 痘 痢 痢 瘓 痪 竣 竣 翔 翔 奠 奠 遂 遂 
焙 焙 滯 滞 湘 湘 渤 渤 渺 渺 潰 溃 濺 溅 湃 愕 愕 惶 惶 寓 寓 窖 窖 窘 窘 
雇 雇 謗 谤 犀 犀 隘 隘 媒 媒 媚 媚 婿 婿 緬 缅 纜 缆 締 缔 縷 缕 騷 骚 瑟 
瑟 鵡 鹉 瑰 瑰 搪 搪 聘 聘 斟 斟 靴 靴 靶 靶 蓖 蓖 蒿 蒿 蒲 蒲 蓉 蓉 楔 楔 
椿 椿 楷 楷 欖 榄 楞 楞 楣 楣 酪 酪 碘 碘 硼 硼 碉 碉 輻 辐 輯 辑 頻 频 睹 
睹 睦 瞄 瞄 嗜 嗜 嗦 嗦 暇 暇 畸 畸 蹺 跷 跺 跺 蜈 蜈 蝸 蜗 蛻 蜕 蛹 蛹 嗅 
嗅 嗡 嗡 嗤 嗤 署 署 蜀 蜀 幌 幌 錨 锚 錐 锥 鍁 锨 錠 锭 錳 锰 稚 稚 頹 颓 
筷 筷 魁 魁 衙 衙 膩 腻 腮 腮 腺 腺 鵬 鹏 肄 肄 猿 猿 穎 颖 煞 煞 雛 雏 饃 
馍 餾 馏 稟 禀 痹 痹 廓 廓 癡 痴 靖 靖 誊 漓 漓 溢 溢 溯 溯 溶 溶 滓 滓 溺 
溺 寞 寞 窺 窥 窟 窟 寢 寝 褂 褂 裸 裸 謬 谬 媳 媳 嫉 嫉 縛 缚 繽 缤 剿 剿 
贅 赘 熬 熬 赫 赫 蔫 蔫 摹 摹 蔓 蔓 蔗 蔗 藹 蔼 熙 熙 蔚 蔚 兢 兢 榛 榛 榕 
榕 酵 酵 碟 碟 碴 碴 堿 碱 碳 碳 轅 辕 轄 辖 雌 雌 墅 墅 嘁 嘁 踴 踊 蟬 蝉 
嘀 幔 幔 鍍 镀 舔 舔 熏 熏 箍 箍 箕 箕 簫 箫 輿 舆 僧 僧 孵 孵 瘩 瘩 瘟 瘟 
彰 彰 粹 粹 漱 漱 漩 漩 漾 漾 慷 慷 寡 寡 寥 寥 譚 谭 褐 褐 褪 褪 隧 隧 嫡 
嫡 纓 缨 攆 撵 撩 撩 撮 撮 撬 撬 擒 擒 墩 墩 撰 撰 鞍 鞍 蕊 蕊 蘊 蕴 樊 樊 
樟 樟 橄 橄 敷 敷 豌 豌 醇 醇 磕 磕 磅 碾 碾 憋 憋 嘶 嘶 嘲 嘲 嘹 嘹 蝠 蝠 
蠍 蝎 蝌 蝌 蝗 蝗 蝙 蝙 嘿 嘿 幢 幢 鑷 镊 鎬 镐 稽 稽 簍 篓 膘 膘 鯉 鲤 鯽 

鲫 褒 褒 癟 瘪 瘤 瘤 癱 瘫 凜 凛 澎 澎 潭 潭 潦 潦 澳 澳 潘 潘 澈 澈 瀾 澜 
澄 澄 憔 憔 懊 懊 憎 憎 翩 翩 褥 褥 譴 谴 鶴 鹤 憨 憨 履 履 嬉 嬉 豫 豫 缭 
撼 撼 擂 擂 擅 擅 蕾 蕾 薛 薛 薇 薇 擎 擎 翰 翰 噩 噩 櫥 橱 橙 橙 瓢 瓢 蟥 
蟥 霍 霍 霎 霎 轍 辙 冀 冀 踱 踱 蹂 蹂 蟆 蟆 螃 螃 螟 螟 噪 噪 鸚 鹦 黔 黔 
穆 穆 篡 篡 篷 篷 篙 篙 籬 篱 儒 儒 膳 膳 鯨 鲸 癮 瘾 瘸 瘸 糙 糙 燎 燎 瀕 
濒 憾 憾 懈 懈 窿 窿 韁 缰 壕 壕 藐 檬 檬 檐 檐 檁 檩 檀 檀 礁 礁 磷 磷 瞭 
瞭 瞬 瞬 瞳 瞳 瞪 瞪 曙 曙 蹋 蹋 蟋 蟋 蟀 蟀 嚎 嚎 贍 赡 鐐 镣 魏 魏 簇 簇 
儡 儡 徽 徽 爵 爵 朦 朦 臊 臊 鱷 鳄 糜 糜 癌 癌 懦 懦 豁 豁 臀 臀 藕 藕 藤 
藤 瞻 瞻 囂 嚣 鰭 鳍 癩 癞 瀑 瀑 襟 襟 璧 璧 戳 戳 攢 攒 孽 孽 蘑 蘑 藻 鱉 
鳖 蹭 蹭 蹬 蹬 簸 簸 簿 簿 蟹 蟹 靡 靡 癬 癣 羹 羹 鬢 鬓 攘 攘 蠕 蠕 巍 巍 
鱗 鳞 糯 糯 譬 譬 霹 霹 躪 躏 髓 髓 蘸 蘸 鑲 镶 瓤 瓤 矗 矗 
